rareup_first_m20 inputs/rareup_first_m20.txt 1 1 48757 0.1963 48757
rareup_first_m50 inputs/rareup_first_m50.txt 1 1 48787 0.1671 48787
rareup_first_m80 inputs/rareup_first_m80.txt 1 1 48780 0.1235 48780
rareup_first_m90 inputs/rareup_first_m90.txt 1 1 48870 0.1073 48870
rareup_first_m100 inputs/rareup_first_m100.txt 1 1 48903 0.09082 48903
rareup_first_m120 inputs/rareup_first_m120.txt 1 1 48775 0.05886 48775
rareup_first_m150 inputs/rareup_first_m150.txt 1 1 48167 0.02204 48167
rarecharm_first_m20 inputs/rarecharm_first_m20.txt 1 1 48685 0.1608 48685
rarecharm_first_m50 inputs/rarecharm_first_m50.txt 1 1 48754 0.1377 48754
rarecharm_first_m80 inputs/rarecharm_first_m80.txt 1 1 48799 0.0999 48799
rarecharm_first_m90 inputs/rarecharm_first_m90.txt 1 1 48790 0.0855 48790
rarecharm_first_m100 inputs/rarecharm_first_m100.txt 1 1 48871 0.07065 48871
rarecharm_first_m120 inputs/rarecharm_first_m120.txt 1 1 48665 0.04136 48665
rarecharm_first_m150 inputs/rarecharm_first_m150.txt 1 1 46150 0.007517 46150
rareup_second_m20 inputs/rareup_second_m20.txt 1 1 48757 0.1963 48757
rareup_second_m50 inputs/rareup_second_m50.txt 1 1 48787 0.1671 48757
rareup_second_m80 inputs/rareup_second_m80.txt 1 1 48780 0.1235 48780
rareup_second_m90 inputs/rareup_second_m90.txt 1 1 48821 0.1073 48821
rareup_second_m100 inputs/rareup_second_m100.txt 1 1 48861 0.09072 48861
rareup_second_m120 inputs/rareup_second_m120.txt 1 1 48775 0.05886 48775
rareup_second_m150 inputs/rareup_second_m150.txt 1 1 48167 0.02204 48167
rarecharm_second_m20 inputs/rarecharm_second_m20.txt 1 1 48685 0.1608 48685
rarecharm_second_m50 inputs/rarecharm_second_m50.txt 1 1 48754 0.1377 48754
rarecharm_second_m80 inputs/rarecharm_second_m80.txt 1 1 48799 0.0999 48799
rarecharm_second_m90 inputs/rarecharm_second_m90.txt 1 1 48921 0.08544 48921
rarecharm_second_m100 inputs/rarecharm_second_m100.txt 1 1 48871 0.07065 48871
rarecharm_second_m120 inputs/rarecharm_second_m120.txt 1 1 48665 0.04136 48665
rarecharm_second_m150 inputs/rarecharm_second_m150.txt 1 1 46150 0.007517 46150
rareup_third_m20 inputs/rareup_third_m20.txt 1 1 48571 0.0001242 48571
rareup_third_m30 inputs/rareup_third_m30.txt 1 1 48577 0.0001074 48577
rareup_third_m40 inputs/rareup_third_m40.txt 1 1 48481 0.00009163 48481
rareup_third_m50 inputs/rareup_third_m50.txt 1 1 48474 0.00007823 48474
rareup_third_m60 inputs/rareup_third_m60.txt 1 1 48463 0.00006862 48463
rareup_third_m70 inputs/rareup_third_m70.txt 1 1 48443 0.00006194 48443
rareup_third_m80 inputs/rareup_third_m80.txt 1 1 48486 0.00005729 48486
rareup_third_m90 inputs/rareup_third_m90.txt 1 1 48530 0.00005307 48530
rareup_third_m100 inputs/rareup_third_m100.txt 1 1 48548 0.00004925 48548
rareup_third_m120 inputs/rareup_third_m120.txt 1 1 48558 0.00004253 48558
rareup_third_m150 inputs/rareup_third_m150.txt 1 1 48659 0.00003437 48659
rarecharm_third_m20 inputs/rarecharm_third_m20.txt 1 1 47568 0.00007408 47568
rarecharm_third_m30 inputs/rarecharm_third_m30.txt 1 1 47154 0.00005451 47154
rarecharm_third_m40 inputs/rarecharm_third_m40.txt 1 1 46396 0.00003700 46396
rarecharm_third_m50 inputs/rarecharm_third_m50.txt 1 1 45068 0.00002361 45068
rarecharm_third_m60 inputs/rarecharm_third_m60.txt 1 1 43265 0.00001522 43265
rarecharm_third_m70 inputs/rarecharm_third_m70.txt 1 1 41964 0.00001113 41964
rarecharm_third_m80 inputs/rarecharm_third_m80.txt 1 1 41563 0.000009691 41563
rarecharm_third_m90 inputs/rarecharm_third_m90.txt 1 1 41417 0.00000882 41417
rarecharm_third_m100 inputs/rarecharm_third_m100.txt 1 1 41541 0.000008024 41541
rarecharm_third_m120 inputs/rarecharm_third_m120.txt 1 1 41257 0.000006676 41257
rarecharm_third_m150 inputs/rarecharm_third_m150.txt 1 1 41179 0.000003412 41179
tZj inputs/tZj.txt 1 1 150000 0.03449 150000
tZj_mu inputs/tZj_mu.txt 1 1 50000 0.001916 50000
ttbar inputs/ttbar.txt 1 1 1150000 832 1150000
ttbar_tau inputs/ttbar_tau.txt 1 1 3450000 9.3573 3450000
ttbar_mu inputs/ttbar_mu.txt 1 1 500000 9.37546 500000
Zjets inputs/Zjets.txt 1 1 250000 1082.0 250000
Wjets inputs/Wjets.txt 1 1 50000 407.6 50000
Diboson inputs/Diboson.txt 1 1 250000 98.9 250000
Diboson_mu inputs/Diboson_mu.txt 1 1 36938 0.902 36938
ZZ_mu inputs/ZZ_mu.txt 1 1 250000 0.01055 250000
Triboson inputs/Triboson.txt 1 1 500000 0.09236 500000
Triboson_mu inputs/Triboson_mu.txt 1 1 181903 0.00003569 181903
tW inputs/tW.txt 1 1 250000 55.68 250000
tW_tau inputs/tW_tau.txt 1 1 3250000 6.042 3250000
ttX inputs/ttX.txt 1 1 1500000 0.9336 1500000
ttX_mu inputs/ttX_mu.txt 1 1 99002 0.00457 99002
signal inputs/signal.txt 1 1 300000 0.03668 300000
